Lab 3: COVID-19
…
Rows: 3221 Columns: 3
── Column specification ────────────────────────────────────────────────────────
Delimiter: ","
chr (1): fips
dbl (2): LON, LAT

ℹ Use `spec()` to retrieve the full column specification for this data.
ℹ Specify the column types or set `show_col_types = FALSE` to quiet this message.
Joining with `by = join_by(fips)`

print(meta)

# A tibble: 844 × 5
   date       wmX_c wmY_c cases     d
   <date>     <dbl> <dbl> <dbl> <int>
 1 2020-01-21 -122.  48.0     1     1
 2 2020-01-22 -122.  48.0     1     2
 3 2020-01-23 -122.  48.0     1     3
 4 2020-01-24 -105.  44.9     2     4
 5 2020-01-25 -109.  41.2     3     5
 6 2020-01-26 -112.  38.2     5     6
 7 2020-01-27 -112.  38.2     5     7
 8 2020-01-28 -112.  38.2     5     8
 9 2020-01-29 -112.  38.2     5     9
10 2020-01-30 -108.  38.8     6    10
# ℹ 834 more rows
…
